<?xml version="1.0" encoding="UTF-8" standalone="no"?>
<!-- Created with Inkscape (http://www.inkscape.org/) -->

<svg
   width="210mm"
   height="297mm"
   viewBox="0 0 210 297"
   version="1.1"
   id="svg5"
   inkscape:version="1.2 (dc2aedaf03, 2022-05-15)"
   sodipodi:docname="ico.svg"
   xmlns:inkscape="http://www.inkscape.org/namespaces/inkscape"
   xmlns:sodipodi="http://sodipodi.sourceforge.net/DTD/sodipodi-0.dtd"
   xmlns="http://www.w3.org/2000/svg"
   xmlns:svg="http://www.w3.org/2000/svg">
  <sodipodi:namedview
     id="namedview7"
     pagecolor="#ffffff"
     bordercolor="#000000"
     borderopacity="0.25"
     inkscape:showpageshadow="2"
     inkscape:pageopacity="0.0"
     inkscape:pagecheckerboard="0"
     inkscape:deskcolor="#d1d1d1"
     inkscape:document-units="mm"
     showgrid="false"
     inkscape:zoom="0.89263468"
     inkscape:cx="397.13895"
     inkscape:cy="561.25984"
     inkscape:window-width="2498"
     inkscape:window-height="1417"
     inkscape:window-x="1974"
     inkscape:window-y="-8"
     inkscape:window-maximized="1"
     inkscape:current-layer="layer1" />
  <defs
     id="defs2" />
  <g
     inkscape:label="Слой 1"
     inkscape:groupmode="layer"
     id="layer1">
    <text
       xml:space="preserve"
       style="font-size:115.006px;fill:#000000;stroke-width:0.264583"
       x="56.317364"
       y="153.24252"
       id="text63"><tspan
         sodipodi:role="line"
         x="56.317364"
         y="153.24252"
         style="font-style:italic;font-variant:normal;font-weight:bold;font-stretch:normal;font-size:115.006px;font-family:sans-serif;-inkscape-font-specification:'sans-serif Bold Italic';stroke-width:0.264583"
         id="tspan115">H</tspan></text>
    <path
       style="fill:#000000;stroke-width:0.264583"
       d="M 37.643712,160.9491 H 179.62275"
       id="path596" />
    <path
       style="fill:#000000;stroke-width:0.264583"
       d="m 55.131736,170.73054 107.892214,4.1497 v 0"
       id="path651" />
    <path
       style="fill:#000000;stroke-width:0.321651"
       d="M 32.649097,157.09581 H 164.50599 v 2.66767 H 32.308382 v -2.66767 z"
       id="path657" />
  </g>
</svg>
